…
The chart above shows that Taylor reached her greatest lexical complecity in 2010. 2010 roughly marks Taylor’s transition from a country music artist to a pop artist. The most notable trend is that as Taylor’s songs skewed more heavily toward the pop music genre, the number of unique words in songs decreased. But again, looking at averages doesn’t get us very far, so let’s take a gander at boxplots.

The distribution of unique words in songs over the years is quite similar, but gets tighter over time.

Word repetition increased dramatically after 2010, and was at its highest in 2014. In 2014, Taylor repeated words on average 2.57 times.

Question 3: What topics are typically covered in Taylor’s songs?

Does Taylor Swift really sing about the same topics, or am I salty? To find out, I use a method called Latent Dirichlet Allocation (LDA). LDA is a generative probabilistic model commonly used to model topics in documents.

LDA assumes that each document is a mixture of topics, and each topic is a mixture of words. It can be used for many different types of analyses. The probabilistic model generated by LDA assigns probabilities to a word falling under a given topic, and to a topic being assigned to a given document.

I will treat each song as a “document.” Before we dive into the analysis, let’s look at the most frequent songs in her collection.

## # A tibble: 1,957 x 2
##    word      n
##    <chr> <int>
##  1 time    164
##  2 love    160
##  3 baby    115
##  4 ooh     103
##  5 stay     88
##  6 wanna    82
##  7 shake    80
##  8 yeah     80
##  9 ey       72
## 10 night    72
## # ... with 1,947 more rows
…
